<svg width="49" height="51" viewBox="0 0 49 51" fill="none" xmlns="http://www.w3.org/2000/svg">
<path d="M12.0019 45.3231C11.1868 44.8268 10.4351 44.2621 9.74724 43.6671H39.5249C38.8111 44.2508 38.0368 44.8151 37.3056 45.3231H12.0019ZM42.8851 39.9128H6.27229C5.82166 39.3247 5.43445 38.7976 5.07288 38.2567H44.0777C43.7043 38.8617 43.3216 39.4211 42.8851 39.9128ZM46.0067 34.5024H3.14064C3.09742 34.3949 3.05505 34.2903 3.01363 34.1881C2.81987 33.7098 2.64714 33.2835 2.50692 32.8464H46.621C46.4516 33.4243 46.2354 33.9889 46.0067 34.5024ZM47.6321 28.8667H1.72617C1.69059 28.6172 1.66169 28.3454 1.63131 28.0472C1.62835 28.0181 1.62537 27.9887 1.62237 27.9592C1.59822 27.7213 1.57268 27.4697 1.54089 27.2106H1.97608H47.3579H47.8846C47.8372 27.7821 47.7423 28.3452 47.6321 28.8667ZM24.667 1.28613C36.852 1.28613 46.8589 11.1165 47.8661 23.4563H47.3579H1.97608H1.46788C2.47513 11.1165 12.482 1.28613 24.667 1.28613ZM24.667 49.3809C23.4815 49.3809 22.3293 49.2751 21.2101 49.0774H28.1239C27.0047 49.2751 25.8525 49.3809 24.667 49.3809Z" stroke="white" stroke-width="1.5"/>
</svg>
